# Blender v2.78 (sub 0) OBJ File: ''
# www.blender.org
o Cylinder006.001
v 269.753113 1704.793579 -16.671515
v 270.290314 1735.540527 0.405594
v 270.290314 1704.793579 0.405582
v 268.145813 1735.540527 -33.681301
v 268.145813 1704.793579 -33.681324
v 269.753113 1766.287354 -16.671503
v 268.145813 1766.287354 -33.681301
v 270.290314 1766.287354 0.405600
v 269.753113 1735.540527 -16.671503
v 265.472504 1735.540527 -50.556503
v 261.745911 1735.540527 -67.230728
v 265.472504 1704.793579 -50.556526
v 261.745911 1704.793579 -67.230728
v 261.745911 1766.287354 -67.230682
v 265.472504 1766.287354 -50.556503
v 256.978699 1704.793579 -83.637825
v 251.191605 1735.540527 -99.713425
v 251.191605 1704.793579 -99.713425
v 251.191605 1766.287354 -99.713379
v 256.978699 1735.540527 -83.637825
v 256.978699 1766.287354 -83.637779
v 244.405594 1704.793579 -115.393623
v 236.649399 1735.540527 -130.617325
v 236.649399 1704.793579 -130.617325
v 236.649399 1766.287354 -130.617325
v 244.405594 1735.540527 -115.393623
v 244.405594 1766.287354 -115.393578
v 227.951706 1704.793579 -145.323318
v 218.348602 1735.540527 -159.454727
v 218.348602 1704.793579 -159.454727
v 227.951706 1766.287354 -145.323318
v 218.348602 1766.287354 -159.454727
v 207.876297 1704.793579 -172.954727
v 196.577805 1735.540527 -185.771118
v 196.577805 1704.793579 -185.771118
v 207.876297 1766.287354 -172.954727
v 196.577698 1766.287354 -185.771118
v 184.496002 1704.793579 -197.852127
v 171.680298 1735.540527 -209.151428
v 171.680298 1704.793579 -209.151428
v 184.496002 1766.287354 -197.852127
v 171.680298 1766.287354 -209.151428
v 158.179703 1704.793579 -219.622925
v 144.048798 1735.540527 -229.226822
v 144.048798 1704.793579 -229.226822
v 158.179703 1766.287354 -219.622925
v 144.048798 1766.287354 -229.226822
v 129.342194 1704.793579 -237.923721
v 114.119102 1735.540527 -245.680832
v 114.119102 1704.793579 -245.680832
v 129.342194 1766.287354 -237.923721
v 114.119102 1766.287354 -245.680832
v 98.438499 1704.793579 -252.465927
v 82.363197 1735.540527 -258.253845
v 82.363197 1704.793579 -258.253845
v 98.438499 1766.287354 -252.465927
v 82.363197 1766.287354 -258.253845
v 65.955803 1704.793579 -263.020020
v 49.281799 1735.540527 -266.747620
v 49.281799 1704.793579 -266.747620
v 65.955803 1766.287354 -263.020020
v 49.281799 1766.287354 -266.747620
v 32.406502 1704.793579 -269.419922
v 15.396700 1735.540527 -271.028320
v 15.396700 1704.793579 -271.028320
v 32.406502 1766.287354 -269.419922
v 15.396700 1766.287354 -271.028320
v -1.680500 1704.793579 -271.564423
v -18.757700 1735.540527 -271.028320
v -18.757700 1704.793579 -271.028320
v -1.680500 1766.287354 -271.564423
v -18.757700 1766.287354 -271.028320
v -35.767399 1704.793579 -269.419922
v -52.642700 1735.540527 -266.747620
v -52.642700 1704.793579 -266.747620
v -35.767399 1766.287354 -269.419922
v -52.642700 1766.287354 -266.747620
v -69.316704 1704.793579 -263.020020
v -85.724098 1735.540527 -258.253845
v -85.724098 1704.793579 -258.253845
v -69.316704 1766.287354 -263.020020
v -85.724098 1766.287354 -258.253845
v -101.799400 1704.793579 -252.465820
v -117.480003 1735.540527 -245.680832
v -117.480003 1704.793579 -245.680832
v -101.799400 1766.287354 -252.465820
v -117.480003 1766.287354 -245.680832
v -132.703094 1704.793579 -237.923630
v -147.409698 1735.540527 -229.226822
v -147.409698 1704.793579 -229.226822
v -132.703094 1766.287354 -237.923630
v -147.409698 1766.287354 -229.226822
v -161.540604 1704.793579 -219.622818
v -175.041199 1735.540527 -209.151321
v -175.041199 1704.793579 -209.151321
v -161.540604 1766.287354 -219.622818
v -175.041199 1766.287354 -209.151321
v -187.856903 1704.793579 -197.852020
v -199.938599 1735.540527 -185.771027
v -199.938599 1704.793579 -185.771027
v -187.856903 1766.287354 -197.852020
v -199.938599 1766.287354 -185.771027
v -211.237106 1704.793579 -172.954620
v -221.709396 1735.540527 -159.454620
v -221.709396 1704.793579 -159.454620
v -211.237106 1766.287354 -172.954620
v -221.709396 1766.287354 -159.454620
v -231.312500 1704.793579 -145.323120
v -240.010300 1735.540527 -130.617126
v -240.010193 1704.793579 -130.617126
v -231.312500 1766.287354 -145.323120
v -240.010300 1766.287354 -130.617126
v -247.766495 1704.793579 -115.393524
v -254.552505 1704.793579 -99.713326
v -247.766495 1735.540527 -115.393425
v -254.552505 1766.287354 -99.713280
v -254.552505 1735.540527 -99.713326
v -247.766495 1766.287354 -115.393478
v -260.339508 1704.793579 -83.637627
v -265.106689 1735.540527 -67.230522
v -265.106689 1704.793579 -67.230522
v -260.339508 1766.287354 -83.637581
v -265.106689 1766.287354 -67.230476
v -260.339508 1735.540527 -83.637627
v -268.833313 1704.793579 -50.556324
v -271.506592 1704.793579 -33.681126
v -268.833313 1735.540527 -50.556301
v -268.833313 1766.287354 -50.556301
v -271.506592 1735.540527 -33.681103
v -271.506592 1766.287354 -33.681103
v -273.113892 1704.793579 -16.671314
v -273.651093 1704.793579 0.405882
v -273.113892 1735.540527 -16.671303
v -273.113892 1766.287354 -16.671303
v -273.651093 1735.540527 0.405894
v -273.651093 1766.287354 0.405900
v -273.113892 1704.793579 17.482986
v -271.506500 1704.793579 34.492874
v -273.113892 1735.540527 17.482998
v -273.113892 1766.287354 17.482998
v -271.506500 1735.540527 34.492897
v -271.506500 1766.287354 34.492897
v -268.833191 1704.793579 51.367973
v -265.106598 1704.793579 68.042274
v -268.833191 1735.540527 51.367996
v -268.833191 1766.287354 51.367996
v -265.106598 1735.540527 68.042274
v -265.106598 1766.287354 68.042320
v -260.339386 1704.793579 84.449272
v -254.552307 1735.540527 100.524971
v -254.552307 1704.793579 100.524971
v -260.339386 1766.287354 84.449318
v -254.552307 1766.287354 100.525017
v -260.339386 1735.540527 84.449272
v -247.766296 1704.793579 116.205177
v -240.009995 1735.540527 131.428772
v -240.009995 1704.793579 131.428772
v -247.766296 1766.287354 116.205223
v -240.010101 1766.287354 131.428772
v -247.766296 1735.540527 116.205177
v -231.312302 1704.793579 146.134781
v -221.709198 1735.540527 160.266281
v -221.709198 1704.793579 160.266281
v -231.312302 1766.287354 146.134781
v -221.709198 1766.287354 160.266281
v -211.236801 1704.793579 173.766174
v -199.938293 1735.540527 186.582672
v -199.938293 1704.793579 186.582672
v -211.236801 1766.287354 173.766174
v -199.938293 1766.287354 186.582672
v -187.856598 1704.793579 198.663574
v -175.040802 1735.540527 209.962875
v -175.040802 1704.793579 209.962875
v -187.856598 1766.287354 198.663574
v -175.040802 1766.287354 209.962875
v -161.540207 1704.793579 220.434372
v -147.409302 1735.540527 230.038269
v -147.409302 1704.793579 230.038269
v -161.540207 1766.287354 220.434372
v -147.409302 1766.287354 230.038269
v -132.702698 1704.793579 238.735077
v -117.479599 1735.540527 246.492279
v -117.479599 1704.793579 246.492279
v -132.702698 1766.287354 238.735077
v -117.479599 1766.287354 246.492279
v -101.799004 1704.793579 253.277267
v -85.723602 1735.540527 259.065369
v -85.723602 1704.793579 259.065369
v -101.799004 1766.287354 253.277267
v -85.723602 1766.287354 259.065369
v -69.316299 1704.793579 263.831573
v -52.642300 1735.540527 267.559265
v -52.642300 1704.793579 267.559174
v -69.316299 1766.287354 263.831573
v -52.642300 1766.287354 267.559174
v -35.766899 1704.793579 270.231476
v -18.757200 1735.540527 271.839752
v -18.757200 1704.793579 271.839752
v -18.757200 1766.287354 271.839874
v -35.766899 1735.540527 270.231476
v -35.766899 1766.287354 270.231476
v -1.680000 1704.793579 272.375977
v 15.397200 1735.540527 271.839752
v 15.397200 1704.793579 271.839752
v -1.680000 1766.287354 272.375977
v 15.397200 1766.287354 271.839752
v 32.406898 1704.793579 270.231354
v 49.282299 1735.540527 267.559052
v 49.282299 1704.793579 267.559052
v 32.406898 1766.287354 270.231354
v 49.282299 1766.287354 267.559052
v 65.956299 1704.793579 263.831451
v 82.363602 1735.540527 259.065155
v 82.363602 1704.793579 259.065155
v 65.956299 1766.287354 263.831451
v 82.363602 1766.287354 259.065155
v 98.438904 1704.793579 253.276978
v 114.119499 1735.540527 246.491974
v 114.119499 1704.793579 246.491974
v 98.438904 1766.287354 253.276978
v 114.119499 1766.287354 246.491974
v 129.342697 1704.793579 238.734772
v 144.049194 1735.540527 230.037872
v 144.049194 1704.793579 230.037872
v 129.342697 1766.287354 238.734772
v 144.049194 1766.287354 230.037872
v 158.180099 1704.793579 220.433868
v 171.680695 1735.540527 209.962372
v 171.680695 1704.793579 209.962372
v 158.180099 1766.287354 220.433868
v 171.680603 1766.287354 209.962372
v 184.496399 1704.793579 198.663071
v 196.578094 1735.540527 186.582077
v 196.578094 1704.793579 186.582077
v 184.496399 1766.287354 198.663071
v 196.578094 1766.287354 186.582077
v 207.876602 1704.793579 173.765579
v 218.348801 1735.540527 160.265671
v 218.348801 1704.793579 160.265671
v 207.876602 1766.287354 173.765579
v 218.348801 1766.287354 160.265671
v 227.951904 1704.793579 146.134171
v 236.649597 1735.540527 131.428070
v 236.649597 1704.793579 131.428070
v 227.951904 1766.287354 146.134171
v 236.649597 1766.287354 131.428070
v 244.405807 1704.793579 116.204475
v 251.191803 1735.540527 100.524277
v 251.191803 1704.793579 100.524277
v 251.191803 1766.287354 100.524323
v 244.405807 1735.540527 116.204475
v 244.405807 1766.287354 116.204521
v 256.978790 1704.793579 84.448578
v 261.746002 1735.540527 68.041473
v 261.746002 1704.793579 68.041473
v 261.746002 1766.287354 68.041519
v 256.978790 1735.540527 84.448578
v 256.978790 1766.287354 84.448624
v 265.472595 1704.793579 51.367275
v 268.145905 1735.540527 34.492199
v 268.145905 1704.793579 34.492176
v 265.472595 1766.287354 51.367298
v 268.145905 1766.287354 34.492199
v 269.753204 1735.540527 17.482498
v 269.753204 1704.793579 17.482487
v 269.753204 1766.287354 17.482498
v 227.951706 1735.540527 -145.323318
v 207.876297 1735.540527 -172.954727
v 184.496002 1735.540527 -197.852127
v 158.179703 1735.540527 -219.622925
v 129.342194 1735.540527 -237.923721
v 98.438499 1735.540527 -252.465927
v 65.955803 1735.540527 -263.020020
v 32.406502 1735.540527 -269.419922
v -1.680500 1735.540527 -271.564423
v -35.767399 1735.540527 -269.419922
v -69.316704 1735.540527 -263.020020
v -101.799400 1735.540527 -252.465820
v -132.703094 1735.540527 -237.923630
v -161.540604 1735.540527 -219.622818
v -187.856903 1735.540527 -197.852020
v -211.237106 1735.540527 -172.954620
v -231.312500 1735.540527 -145.323120
v -231.312302 1735.540527 146.134781
v -211.236801 1735.540527 173.766174
v -187.856598 1735.540527 198.663574
v -161.540207 1735.540527 220.434372
v -132.702698 1735.540527 238.735077
v -101.799004 1735.540527 253.277267
v -69.316299 1735.540527 263.831573
v -1.680000 1735.540527 272.375977
v 32.406898 1735.540527 270.231354
v 65.956299 1735.540527 263.831451
v 98.438904 1735.540527 253.276978
v 129.342697 1735.540527 238.734772
v 158.180099 1735.540527 220.433868
v 184.496399 1735.540527 198.663071
v 207.876602 1735.540527 173.765579
v 227.951904 1735.540527 146.134171
v 265.472595 1735.540527 51.367298
vt 0.8900 0.0000
vt 0.8800 0.5000
vt 0.8800 0.0000
vt 0.9000 0.5000
vt 0.9000 0.0000
vt 0.8900 1.0000
vt 0.9000 1.0000
vt 0.8800 1.0000
vt 0.8900 0.5000
vt 0.9100 0.5000
vt 0.9200 0.5000
vt 0.9100 0.0000
vt 0.9200 0.0000
vt 0.9200 1.0000
vt 0.9100 1.0000
vt 0.9300 0.0000
vt 0.9400 0.5000
vt 0.9400 0.0000
vt 0.9400 1.0000
vt 0.9300 0.5000
vt 0.9300 1.0000
vt 0.9500 0.0000
vt 0.9600 0.5000
vt 0.9600 0.0000
vt 0.9600 1.0000
vt 0.9500 0.5000
vt 0.9500 1.0000
vt 0.9700 0.0000
vt 0.9800 0.5000
vt 0.9800 0.0000
vt 0.9700 1.0000
vt 0.9800 1.0000
vt 0.9900 0.0000
vt 1.0000 0.5000
vt 1.0000 0.0000
vt 0.9900 1.0000
vt 1.0000 1.0000
vt 0.0100 0.0000
vt 0.0000 0.5000
vt 0.0000 0.0000
vt 0.0200 0.5000
vt 0.0200 0.0000
vt 0.0100 1.0000
vt 0.0200 1.0000
vt 0.0000 1.0000
vt 0.0300 0.0000
vt 0.0400 0.5000
vt 0.0400 0.0000
vt 0.0300 1.0000
vt 0.0400 1.0000
vt 0.0500 0.0000
vt 0.0600 0.5000
vt 0.0600 0.0000
vt 0.0500 1.0000
vt 0.0600 1.0000
vt 0.0700 0.0000
vt 0.0800 0.5000
vt 0.0800 0.0000
vt 0.0700 1.0000
vt 0.0800 1.0000
vt 0.0900 0.0000
vt 0.1000 0.5000
vt 0.1000 0.0000
vt 0.0900 1.0000
vt 0.1000 1.0000
vt 0.1100 0.0000
vt 0.1200 0.5000
vt 0.1200 0.0000
vt 0.1100 1.0000
vt 0.1200 1.0000
vt 0.1300 0.0000
vt 0.1400 0.5000
vt 0.1400 0.0000
vt 0.1300 1.0000
vt 0.1400 1.0000
vt 0.1500 0.0000
vt 0.1600 0.5000
vt 0.1600 0.0000
vt 0.1500 1.0000
vt 0.1600 1.0000
vt 0.1700 0.0000
vt 0.1800 0.5000
vt 0.1800 0.0000
vt 0.1700 1.0000
vt 0.1800 1.0000
vt 0.1900 0.0000
vt 0.2000 0.5000
vt 0.2000 0.0000
vt 0.1900 1.0000
vt 0.2000 1.0000
vt 0.2100 0.0000
vt 0.2200 0.5000
vt 0.2200 0.0000
vt 0.2100 1.0000
vt 0.2200 1.0000
vt 0.2300 0.0000
vt 0.2400 0.5000
vt 0.2400 0.0000
vt 0.2300 1.0000
vt 0.2400 1.0000
vt 0.2500 0.0000
vt 0.2600 0.5000
vt 0.2600 0.0000
vt 0.2500 1.0000
vt 0.2600 1.0000
vt 0.2700 0.0000
vt 0.2800 0.5000
vt 0.2800 0.0000
vt 0.2700 1.0000
vt 0.2800 1.0000
vt 0.2900 0.0000
vt 0.3000 0.5000
vt 0.3000 0.0000
vt 0.2900 1.0000
vt 0.3000 1.0000
vt 0.3100 0.0000
vt 0.3200 0.0000
vt 0.3100 0.5000
vt 0.3200 1.0000
vt 0.3200 0.5000
vt 0.3100 1.0000
vt 0.3300 0.0000
vt 0.3400 0.5000
vt 0.3400 0.0000
vt 0.3300 1.0000
vt 0.3400 1.0000
vt 0.3300 0.5000
vt 0.3500 0.0000
vt 0.3600 0.0000
vt 0.3500 0.5000
vt 0.3500 1.0000
vt 0.3600 0.5000
vt 0.3600 1.0000
vt 0.3700 0.0000
vt 0.3800 0.0000
vt 0.3700 0.5000
vt 0.3700 1.0000
vt 0.3800 0.5000
vt 0.3800 1.0000
vt 0.3900 0.0000
vt 0.4000 0.0000
vt 0.3900 0.5000
vt 0.3900 1.0000
vt 0.4000 0.5000
vt 0.4000 1.0000
vt 0.4100 0.0000
vt 0.4200 0.0000
vt 0.4100 0.5000
vt 0.4100 1.0000
vt 0.4200 0.5000
vt 0.4200 1.0000
vt 0.4300 0.0000
vt 0.4400 0.5000
vt 0.4400 0.0000
vt 0.4300 1.0000
vt 0.4400 1.0000
vt 0.4300 0.5000
vt 0.4500 0.0000
vt 0.4600 0.5000
vt 0.4600 0.0000
vt 0.4500 1.0000
vt 0.4600 1.0000
vt 0.4500 0.5000
vt 0.4700 0.0000
vt 0.4800 0.5000
vt 0.4800 0.0000
vt 0.4700 1.0000
vt 0.4800 1.0000
vt 0.4900 0.0000
vt 0.5000 0.5000
vt 0.5000 0.0000
vt 0.4900 1.0000
vt 0.5000 1.0000
vt 0.5100 0.0000
vt 0.5200 0.5000
vt 0.5200 0.0000
vt 0.5100 1.0000
vt 0.5200 1.0000
vt 0.5300 0.0000
vt 0.5400 0.5000
vt 0.5400 0.0000
vt 0.5300 1.0000
vt 0.5400 1.0000
vt 0.5500 0.0000
vt 0.5600 0.5000
vt 0.5600 0.0000
vt 0.5500 1.0000
vt 0.5600 1.0000
vt 0.5700 0.0000
vt 0.5800 0.5000
vt 0.5800 0.0000
vt 0.5700 1.0000
vt 0.5800 1.0000
vt 0.5900 0.0000
vt 0.6000 0.5000
vt 0.6000 0.0000
vt 0.5900 1.0000
vt 0.6000 1.0000
vt 0.6100 0.0000
vt 0.6200 0.5000
vt 0.6200 0.0000
vt 0.6200 1.0000
vt 0.6100 0.5000
vt 0.6100 1.0000
vt 0.6300 0.0000
vt 0.6400 0.5000
vt 0.6400 0.0000
vt 0.6300 1.0000
vt 0.6400 1.0000
vt 0.6500 0.0000
vt 0.6600 0.5000
vt 0.6600 0.0000
vt 0.6500 1.0000
vt 0.6600 1.0000
vt 0.6700 0.0000
vt 0.6800 0.5000
vt 0.6800 0.0000
vt 0.6700 1.0000
vt 0.6800 1.0000
vt 0.6900 0.0000
vt 0.7000 0.5000
vt 0.7000 0.0000
vt 0.6900 1.0000
vt 0.7000 1.0000
vt 0.7100 0.0000
vt 0.7200 0.5000
vt 0.7200 0.0000
vt 0.7100 1.0000
vt 0.7200 1.0000
vt 0.7300 0.0000
vt 0.7400 0.5000
vt 0.7400 0.0000
vt 0.7300 1.0000
vt 0.7400 1.0000
vt 0.7500 0.0000
vt 0.7600 0.5000
vt 0.7600 0.0000
vt 0.7500 1.0000
vt 0.7600 1.0000
vt 0.7700 0.0000
vt 0.7800 0.5000
vt 0.7800 0.0000
vt 0.7700 1.0000
vt 0.7800 1.0000
vt 0.7900 0.0000
vt 0.8000 0.5000
vt 0.8000 0.0000
vt 0.7900 1.0000
vt 0.8000 1.0000
vt 0.8100 0.0000
vt 0.8200 0.5000
vt 0.8200 0.0000
vt 0.8200 1.0000
vt 0.8100 0.5000
vt 0.8100 1.0000
vt 0.8300 0.0000
vt 0.8400 0.5000
vt 0.8400 0.0000
vt 0.8400 1.0000
vt 0.8300 0.5000
vt 0.8300 1.0000
vt 0.8500 0.0000
vt 0.8600 0.5000
vt 0.8600 0.0000
vt 0.8500 1.0000
vt 0.8600 1.0000
vt 0.8700 0.5000
vt 0.8700 0.0000
vt 0.8700 1.0000
vt 0.9700 0.5000
vt 0.9900 0.5000
vt 0.0100 0.5000
vt 0.0300 0.5000
vt 0.0500 0.5000
vt 0.0700 0.5000
vt 0.0900 0.5000
vt 0.1100 0.5000
vt 0.1300 0.5000
vt 0.1500 0.5000
vt 0.1700 0.5000
vt 0.1900 0.5000
vt 0.2100 0.5000
vt 0.2300 0.5000
vt 0.2500 0.5000
vt 0.2700 0.5000
vt 0.2900 0.5000
vt 0.4700 0.5000
vt 0.4900 0.5000
vt 0.5100 0.5000
vt 0.5300 0.5000
vt 0.5500 0.5000
vt 0.5700 0.5000
vt 0.5900 0.5000
vt 0.6300 0.5000
vt 0.6500 0.5000
vt 0.6700 0.5000
vt 0.6900 0.5000
vt 0.7100 0.5000
vt 0.7300 0.5000
vt 0.7500 0.5000
vt 0.7700 0.5000
vt 0.7900 0.5000
vt 0.8500 0.5000
vn 0.9980 -0.0000 -0.0628
vn 1.0000 0.0000 -0.0000
vn 0.9921 0.0000 -0.1253
vn 0.9823 0.0000 -0.1874
vn 0.9686 0.0000 -0.2487
vn 0.9511 0.0000 -0.3090
vn 0.9298 0.0000 -0.3681
vn 0.9048 0.0000 -0.4258
vn 0.8763 0.0000 -0.4818
vn 0.8443 0.0000 -0.5358
vn 0.8090 0.0000 -0.5878
vn 0.7705 0.0000 -0.6374
vn 0.7290 0.0000 -0.6845
vn 0.6845 0.0000 -0.7290
vn 0.6374 0.0000 -0.7705
vn 0.5878 0.0000 -0.8090
vn 0.5358 0.0000 -0.8443
vn 0.4818 0.0000 -0.8763
vn 0.4258 0.0000 -0.9048
vn 0.3681 0.0000 -0.9298
vn 0.3090 0.0000 -0.9511
vn 0.2487 0.0000 -0.9686
vn 0.1874 0.0000 -0.9823
vn 0.1253 0.0000 -0.9921
vn 0.0628 0.0000 -0.9980
vn 0.0000 0.0000 -1.0000
vn -0.0628 0.0000 -0.9980
vn -0.1253 0.0000 -0.9921
vn -0.1874 0.0000 -0.9823
vn -0.2487 0.0000 -0.9686
vn -0.3090 0.0000 -0.9511
vn -0.3681 0.0000 -0.9298
vn -0.4258 0.0000 -0.9048
vn -0.4818 0.0000 -0.8763
vn -0.5358 0.0000 -0.8443
vn -0.5878 0.0000 -0.8090
vn -0.6374 0.0000 -0.7705
vn -0.6845 0.0000 -0.7290
vn -0.7290 0.0000 -0.6845
vn -0.7705 0.0000 -0.6374
vn -0.8090 0.0000 -0.5878
vn -0.8443 -0.0000 -0.5358
vn -0.8763 -0.0000 -0.4818
vn -0.9048 -0.0000 -0.4258
vn -0.9298 0.0000 -0.3681
vn -0.9511 0.0000 -0.3090
vn -0.9686 0.0000 -0.2487
vn -0.9823 -0.0000 -0.1874
vn -0.9921 0.0000 -0.1253
vn -0.9980 0.0000 -0.0628
vn -1.0000 -0.0000 0.0000
vn -0.9980 0.0000 0.0628
vn -0.9921 -0.0000 0.1253
vn -0.9823 -0.0000 0.1874
vn -0.9686 -0.0000 0.2487
vn -0.9511 0.0000 0.3090
vn -0.9298 -0.0000 0.3681
vn -0.9048 0.0000 0.4258
vn -0.8763 -0.0000 0.4818
vn -0.8443 0.0000 0.5358
vn -0.8090 0.0000 0.5878
vn -0.7705 0.0000 0.6374
vn -0.7290 0.0000 0.6845
vn -0.6845 0.0000 0.7290
vn -0.6374 0.0000 0.7705
vn -0.5878 0.0000 0.8090
vn -0.5358 0.0000 0.8443
vn -0.4818 0.0000 0.8763
vn -0.4258 0.0000 0.9048
vn -0.3681 0.0000 0.9298
vn -0.3090 0.0000 0.9511
vn -0.2487 -0.0000 0.9686
vn -0.1874 0.0000 0.9823
vn -0.1253 -0.0000 0.9921
vn -0.0628 -0.0000 0.9980
vn -0.0000 0.0000 1.0000
vn 0.0628 0.0000 0.9980
vn 0.1253 0.0000 0.9921
vn 0.1874 0.0000 0.9823
vn 0.2487 0.0000 0.9686
vn 0.3090 0.0000 0.9511
vn 0.3681 0.0000 0.9298
vn 0.4258 0.0000 0.9048
vn 0.4818 0.0000 0.8763
vn 0.5358 0.0000 0.8443
vn 0.5878 0.0000 0.8090
vn 0.6374 0.0000 0.7705
vn 0.6845 0.0000 0.7290
vn 0.7290 0.0000 0.6845
vn 0.7705 0.0000 0.6374
vn 0.8090 0.0000 0.5878
vn 0.8443 0.0000 0.5358
vn 0.8763 -0.0000 0.4818
vn 0.9048 0.0000 0.4258
vn 0.9298 -0.0000 0.3681
vn 0.9511 0.0000 0.3090
vn 0.9686 -0.0000 0.2487
vn 0.9823 -0.0000 0.1874
vn 0.9921 -0.0000 0.1253
vn 0.9980 0.0000 0.0628
s 1
f 1/1/1 2/2/2 3/3/2
f 4/4/3 1/1/1 5/5/3
f 6/6/1 4/4/3 7/7/3
f 8/8/2 9/9/1 6/6/1
f 5/5/3 10/10/4 4/4/3
f 11/11/5 12/12/4 13/13/5
f 14/14/5 10/10/4 11/11/5
f 4/4/3 15/15/4 7/7/3
f 16/16/6 11/11/5 13/13/5
f 17/17/7 16/16/6 18/18/7
f 19/19/7 20/20/6 17/17/7
f 11/11/5 21/21/6 14/14/5
f 22/22/8 17/17/7 18/18/7
f 23/23/9 22/22/8 24/24/9
f 25/25/9 26/26/8 23/23/9
f 17/17/7 27/27/8 19/19/7
f 28/28/10 23/23/9 24/24/9
f 29/29/11 28/28/10 30/30/11
f 31/31/10 29/29/11 32/32/11
f 23/23/9 31/31/10 25/25/9
f 33/33/12 29/29/11 30/30/11
f 34/34/13 33/33/12 35/35/13
f 36/36/12 34/34/13 37/37/13
f 29/29/11 36/36/12 32/32/11
f 38/38/14 34/39/13 35/40/13
f 39/41/15 38/38/14 40/42/15
f 41/43/14 39/41/15 42/44/15
f 34/39/13 41/43/14 37/45/13
f 43/46/16 39/41/15 40/42/15
f 44/47/17 43/46/16 45/48/17
f 46/49/16 44/47/17 47/50/17
f 39/41/15 46/49/16 42/44/15
f 48/51/18 44/47/17 45/48/17
f 49/52/19 48/51/18 50/53/19
f 51/54/18 49/52/19 52/55/19
f 44/47/17 51/54/18 47/50/17
f 53/56/20 49/52/19 50/53/19
f 54/57/21 53/56/20 55/58/21
f 56/59/20 54/57/21 57/60/21
f 49/52/19 56/59/20 52/55/19
f 58/61/22 54/57/21 55/58/21
f 59/62/23 58/61/22 60/63/23
f 61/64/22 59/62/23 62/65/23
f 54/57/21 61/64/22 57/60/21
f 63/66/24 59/62/23 60/63/23
f 64/67/25 63/66/24 65/68/25
f 66/69/24 64/67/25 67/70/25
f 59/62/23 66/69/24 62/65/23
f 68/71/26 64/67/25 65/68/25
f 69/72/27 68/71/26 70/73/27
f 71/74/26 69/72/27 72/75/27
f 64/67/25 71/74/26 67/70/25
f 73/76/28 69/72/27 70/73/27
f 74/77/29 73/76/28 75/78/29
f 76/79/28 74/77/29 77/80/29
f 69/72/27 76/79/28 72/75/27
f 78/81/30 74/77/29 75/78/29
f 79/82/31 78/81/30 80/83/31
f 81/84/30 79/82/31 82/85/31
f 74/77/29 81/84/30 77/80/29
f 83/86/32 79/82/31 80/83/31
f 84/87/33 83/86/32 85/88/33
f 86/89/32 84/87/33 87/90/33
f 79/82/31 86/89/32 82/85/31
f 88/91/34 84/87/33 85/88/33
f 89/92/35 88/91/34 90/93/35
f 91/94/34 89/92/35 92/95/35
f 84/87/33 91/94/34 87/90/33
f 93/96/36 89/92/35 90/93/35
f 94/97/37 93/96/36 95/98/37
f 96/99/36 94/97/37 97/100/37
f 89/92/35 96/99/36 92/95/35
f 98/101/38 94/97/37 95/98/37
f 99/102/39 98/101/38 100/103/39
f 101/104/38 99/102/39 102/105/39
f 94/97/37 101/104/38 97/100/37
f 103/106/40 99/102/39 100/103/39
f 104/107/41 103/106/40 105/108/41
f 106/109/40 104/107/41 107/110/41
f 99/102/39 106/109/40 102/105/39
f 108/111/42 104/107/41 105/108/41
f 109/112/43 108/111/42 110/113/43
f 111/114/42 109/112/43 112/115/43
f 104/107/41 111/114/42 107/110/41
f 113/116/44 109/112/43 110/113/43
f 114/117/45 115/118/44 113/116/44
f 116/119/45 115/118/44 117/120/45
f 109/112/43 118/121/44 112/115/43
f 119/122/46 117/120/45 114/117/45
f 120/123/47 119/122/46 121/124/47
f 122/125/46 120/123/47 123/126/47
f 116/119/45 124/127/46 122/125/46
f 125/128/48 120/123/47 121/124/47
f 126/129/49 127/130/48 125/128/48
f 128/131/48 129/132/49 130/133/49
f 123/126/47 127/130/48 128/131/48
f 131/134/50 129/132/49 126/129/49
f 132/135/51 133/136/50 131/134/50
f 134/137/50 135/138/51 136/139/51
f 129/132/49 134/137/50 130/133/49
f 137/140/52 135/138/51 132/135/51
f 138/141/53 139/142/52 137/140/52
f 140/143/52 141/144/53 142/145/53
f 135/138/51 140/143/52 136/139/51
f 143/146/54 141/144/53 138/141/53
f 144/147/55 145/148/54 143/146/54
f 146/149/54 147/150/55 148/151/55
f 141/144/53 146/149/54 142/145/53
f 149/152/56 147/150/55 144/147/55
f 150/153/57 149/152/56 151/154/57
f 152/155/56 150/153/57 153/156/57
f 148/151/55 154/157/56 152/155/56
f 155/158/58 150/153/57 151/154/57
f 156/159/59 155/158/58 157/160/59
f 158/161/58 156/159/59 159/162/59
f 153/156/57 160/163/58 158/161/58
f 161/164/60 156/159/59 157/160/59
f 162/165/61 161/164/60 163/166/61
f 164/167/60 162/165/61 165/168/61
f 156/159/59 164/167/60 159/162/59
f 166/169/62 162/165/61 163/166/61
f 167/170/63 166/169/62 168/171/63
f 169/172/62 167/170/63 170/173/63
f 162/165/61 169/172/62 165/168/61
f 171/174/64 167/170/63 168/171/63
f 172/175/65 171/174/64 173/176/65
f 174/177/64 172/175/65 175/178/65
f 167/170/63 174/177/64 170/173/63
f 176/179/66 172/175/65 173/176/65
f 177/180/67 176/179/66 178/181/67
f 179/182/66 177/180/67 180/183/67
f 172/175/65 179/182/66 175/178/65
f 181/184/68 177/180/67 178/181/67
f 182/185/69 181/184/68 183/186/69
f 184/187/68 182/185/69 185/188/69
f 177/180/67 184/187/68 180/183/67
f 186/189/70 182/185/69 183/186/69
f 187/190/71 186/189/70 188/191/71
f 189/192/70 187/190/71 190/193/71
f 182/185/69 189/192/70 185/188/69
f 191/194/72 187/190/71 188/191/71
f 192/195/73 191/194/72 193/196/73
f 194/197/72 192/195/73 195/198/73
f 187/190/71 194/197/72 190/193/71
f 196/199/74 192/195/73 193/196/73
f 197/200/75 196/199/74 198/201/75
f 199/202/75 200/203/74 197/200/75
f 192/195/73 201/204/74 195/198/73
f 202/205/76 197/200/75 198/201/75
f 203/206/77 202/205/76 204/207/77
f 205/208/76 203/206/77 206/209/77
f 197/200/75 205/208/76 199/202/75
f 207/210/78 203/206/77 204/207/77
f 208/211/79 207/210/78 209/212/79
f 210/213/78 208/211/79 211/214/79
f 203/206/77 210/213/78 206/209/77
f 212/215/80 208/211/79 209/212/79
f 213/216/81 212/215/80 214/217/81
f 215/218/80 213/216/81 216/219/81
f 208/211/79 215/218/80 211/214/79
f 217/220/82 213/216/81 214/217/81
f 218/221/83 217/220/82 219/222/83
f 220/223/82 218/221/83 221/224/83
f 213/216/81 220/223/82 216/219/81
f 222/225/84 218/221/83 219/222/83
f 223/226/85 222/225/84 224/227/85
f 225/228/84 223/226/85 226/229/85
f 218/221/83 225/228/84 221/224/83
f 227/230/86 223/226/85 224/227/85
f 228/231/87 227/230/86 229/232/87
f 230/233/86 228/231/87 231/234/87
f 223/226/85 230/233/86 226/229/85
f 232/235/88 228/231/87 229/232/87
f 233/236/89 232/235/88 234/237/89
f 235/238/88 233/236/89 236/239/89
f 228/231/87 235/238/88 231/234/87
f 237/240/90 233/236/89 234/237/89
f 238/241/91 237/240/90 239/242/91
f 240/243/90 238/241/91 241/244/91
f 233/236/89 240/243/90 236/239/89
f 242/245/92 238/241/91 239/242/91
f 243/246/93 242/245/92 244/247/93
f 245/248/92 243/246/93 246/249/93
f 238/241/91 245/248/92 241/244/91
f 247/250/94 243/246/93 244/247/93
f 248/251/95 247/250/94 249/252/95
f 250/253/95 251/254/94 248/251/95
f 243/246/93 252/255/94 246/249/93
f 253/256/96 248/251/95 249/252/95
f 254/257/97 253/256/96 255/258/97
f 256/259/97 257/260/96 254/257/97
f 248/251/95 258/261/96 250/253/95
f 259/262/98 254/257/97 255/258/97
f 260/263/99 259/262/98 261/264/99
f 262/265/98 260/263/99 263/266/99
f 254/257/97 262/265/98 256/259/97
f 261/264/99 264/267/100 260/263/99
f 3/3/2 264/267/100 265/268/100
f 266/269/100 2/2/2 8/8/2
f 260/263/99 266/269/100 263/266/99
f 1/1/1 9/9/1 2/2/2
f 4/4/3 9/9/1 1/1/1
f 6/6/1 9/9/1 4/4/3
f 8/8/2 2/2/2 9/9/1
f 5/5/3 12/12/4 10/10/4
f 11/11/5 10/10/4 12/12/4
f 14/14/5 15/15/4 10/10/4
f 4/4/3 10/10/4 15/15/4
f 16/16/6 20/20/6 11/11/5
f 17/17/7 20/20/6 16/16/6
f 19/19/7 21/21/6 20/20/6
f 11/11/5 20/20/6 21/21/6
f 22/22/8 26/26/8 17/17/7
f 23/23/9 26/26/8 22/22/8
f 25/25/9 27/27/8 26/26/8
f 17/17/7 26/26/8 27/27/8
f 28/28/10 267/270/10 23/23/9
f 29/29/11 267/270/10 28/28/10
f 31/31/10 267/270/10 29/29/11
f 23/23/9 267/270/10 31/31/10
f 33/33/12 268/271/12 29/29/11
f 34/34/13 268/271/12 33/33/12
f 36/36/12 268/271/12 34/34/13
f 29/29/11 268/271/12 36/36/12
f 38/38/14 269/272/14 34/39/13
f 39/41/15 269/272/14 38/38/14
f 41/43/14 269/272/14 39/41/15
f 34/39/13 269/272/14 41/43/14
f 43/46/16 270/273/16 39/41/15
f 44/47/17 270/273/16 43/46/16
f 46/49/16 270/273/16 44/47/17
f 39/41/15 270/273/16 46/49/16
f 48/51/18 271/274/18 44/47/17
f 49/52/19 271/274/18 48/51/18
f 51/54/18 271/274/18 49/52/19
f 44/47/17 271/274/18 51/54/18
f 53/56/20 272/275/20 49/52/19
f 54/57/21 272/275/20 53/56/20
f 56/59/20 272/275/20 54/57/21
f 49/52/19 272/275/20 56/59/20
f 58/61/22 273/276/22 54/57/21
f 59/62/23 273/276/22 58/61/22
f 61/64/22 273/276/22 59/62/23
f 54/57/21 273/276/22 61/64/22
f 63/66/24 274/277/24 59/62/23
f 64/67/25 274/277/24 63/66/24
f 66/69/24 274/277/24 64/67/25
f 59/62/23 274/277/24 66/69/24
f 68/71/26 275/278/26 64/67/25
f 69/72/27 275/278/26 68/71/26
f 71/74/26 275/278/26 69/72/27
f 64/67/25 275/278/26 71/74/26
f 73/76/28 276/279/28 69/72/27
f 74/77/29 276/279/28 73/76/28
f 76/79/28 276/279/28 74/77/29
f 69/72/27 276/279/28 76/79/28
f 78/81/30 277/280/30 74/77/29
f 79/82/31 277/280/30 78/81/30
f 81/84/30 277/280/30 79/82/31
f 74/77/29 277/280/30 81/84/30
f 83/86/32 278/281/32 79/82/31
f 84/87/33 278/281/32 83/86/32
f 86/89/32 278/281/32 84/87/33
f 79/82/31 278/281/32 86/89/32
f 88/91/34 279/282/34 84/87/33
f 89/92/35 279/282/34 88/91/34
f 91/94/34 279/282/34 89/92/35
f 84/87/33 279/282/34 91/94/34
f 93/96/36 280/283/36 89/92/35
f 94/97/37 280/283/36 93/96/36
f 96/99/36 280/283/36 94/97/37
f 89/92/35 280/283/36 96/99/36
f 98/101/38 281/284/38 94/97/37
f 99/102/39 281/284/38 98/101/38
f 101/104/38 281/284/38 99/102/39
f 94/97/37 281/284/38 101/104/38
f 103/106/40 282/285/40 99/102/39
f 104/107/41 282/285/40 103/106/40
f 106/109/40 282/285/40 104/107/41
f 99/102/39 282/285/40 106/109/40
f 108/111/42 283/286/42 104/107/41
f 109/112/43 283/286/42 108/111/42
f 111/114/42 283/286/42 109/112/43
f 104/107/41 283/286/42 111/114/42
f 113/116/44 115/118/44 109/112/43
f 114/117/45 117/120/45 115/118/44
f 116/119/45 118/121/44 115/118/44
f 109/112/43 115/118/44 118/121/44
f 119/122/46 124/127/46 117/120/45
f 120/123/47 124/127/46 119/122/46
f 122/125/46 124/127/46 120/123/47
f 116/119/45 117/120/45 124/127/46
f 125/128/48 127/130/48 120/123/47
f 126/129/49 129/132/49 127/130/48
f 128/131/48 127/130/48 129/132/49
f 123/126/47 120/123/47 127/130/48
f 131/134/50 133/136/50 129/132/49
f 132/135/51 135/138/51 133/136/50
f 134/137/50 133/136/50 135/138/51
f 129/132/49 133/136/50 134/137/50
f 137/140/52 139/142/52 135/138/51
f 138/141/53 141/144/53 139/142/52
f 140/143/52 139/142/52 141/144/53
f 135/138/51 139/142/52 140/143/52
f 143/146/54 145/148/54 141/144/53
f 144/147/55 147/150/55 145/148/54
f 146/149/54 145/148/54 147/150/55
f 141/144/53 145/148/54 146/149/54
f 149/152/56 154/157/56 147/150/55
f 150/153/57 154/157/56 149/152/56
f 152/155/56 154/157/56 150/153/57
f 148/151/55 147/150/55 154/157/56
f 155/158/58 160/163/58 150/153/57
f 156/159/59 160/163/58 155/158/58
f 158/161/58 160/163/58 156/159/59
f 153/156/57 150/153/57 160/163/58
f 161/164/60 284/287/60 156/159/59
f 162/165/61 284/287/60 161/164/60
f 164/167/60 284/287/60 162/165/61
f 156/159/59 284/287/60 164/167/60
f 166/169/62 285/288/62 162/165/61
f 167/170/63 285/288/62 166/169/62
f 169/172/62 285/288/62 167/170/63
f 162/165/61 285/288/62 169/172/62
f 171/174/64 286/289/64 167/170/63
f 172/175/65 286/289/64 171/174/64
f 174/177/64 286/289/64 172/175/65
f 167/170/63 286/289/64 174/177/64
f 176/179/66 287/290/66 172/175/65
f 177/180/67 287/290/66 176/179/66
f 179/182/66 287/290/66 177/180/67
f 172/175/65 287/290/66 179/182/66
f 181/184/68 288/291/68 177/180/67
f 182/185/69 288/291/68 181/184/68
f 184/187/68 288/291/68 182/185/69
f 177/180/67 288/291/68 184/187/68
f 186/189/70 289/292/70 182/185/69
f 187/190/71 289/292/70 186/189/70
f 189/192/70 289/292/70 187/190/71
f 182/185/69 289/292/70 189/192/70
f 191/194/72 290/293/72 187/190/71
f 192/195/73 290/293/72 191/194/72
f 194/197/72 290/293/72 192/195/73
f 187/190/71 290/293/72 194/197/72
f 196/199/74 200/203/74 192/195/73
f 197/200/75 200/203/74 196/199/74
f 199/202/75 201/204/74 200/203/74
f 192/195/73 200/203/74 201/204/74
f 202/205/76 291/294/76 197/200/75
f 203/206/77 291/294/76 202/205/76
f 205/208/76 291/294/76 203/206/77
f 197/200/75 291/294/76 205/208/76
f 207/210/78 292/295/78 203/206/77
f 208/211/79 292/295/78 207/210/78
f 210/213/78 292/295/78 208/211/79
f 203/206/77 292/295/78 210/213/78
f 212/215/80 293/296/80 208/211/79
f 213/216/81 293/296/80 212/215/80
f 215/218/80 293/296/80 213/216/81
f 208/211/79 293/296/80 215/218/80
f 217/220/82 294/297/82 213/216/81
f 218/221/83 294/297/82 217/220/82
f 220/223/82 294/297/82 218/221/83
f 213/216/81 294/297/82 220/223/82
f 222/225/84 295/298/84 218/221/83
f 223/226/85 295/298/84 222/225/84
f 225/228/84 295/298/84 223/226/85
f 218/221/83 295/298/84 225/228/84
f 227/230/86 296/299/86 223/226/85
f 228/231/87 296/299/86 227/230/86
f 230/233/86 296/299/86 228/231/87
f 223/226/85 296/299/86 230/233/86
f 232/235/88 297/300/88 228/231/87
f 233/236/89 297/300/88 232/235/88
f 235/238/88 297/300/88 233/236/89
f 228/231/87 297/300/88 235/238/88
f 237/240/90 298/301/90 233/236/89
f 238/241/91 298/301/90 237/240/90
f 240/243/90 298/301/90 238/241/91
f 233/236/89 298/301/90 240/243/90
f 242/245/92 299/302/92 238/241/91
f 243/246/93 299/302/92 242/245/92
f 245/248/92 299/302/92 243/246/93
f 238/241/91 299/302/92 245/248/92
f 247/250/94 251/254/94 243/246/93
f 248/251/95 251/254/94 247/250/94
f 250/253/95 252/255/94 251/254/94
f 243/246/93 251/254/94 252/255/94
f 253/256/96 257/260/96 248/251/95
f 254/257/97 257/260/96 253/256/96
f 256/259/97 258/261/96 257/260/96
f 248/251/95 257/260/96 258/261/96
f 259/262/98 300/303/98 254/257/97
f 260/263/99 300/303/98 259/262/98
f 262/265/98 300/303/98 260/263/99
f 254/257/97 300/303/98 262/265/98
f 261/264/99 265/268/100 264/267/100
f 3/3/2 2/2/2 264/267/100
f 266/269/100 264/267/100 2/2/2
f 260/263/99 264/267/100 266/269/100
